<svg width="171" height="163" viewBox="0 0 171 163" fill="none" xmlns="http://www.w3.org/2000/svg">
<path d="M96 92.5L170.5 123L152.5 154L76 161.5L29.5 94.5L96 92.5Z" fill="black" fill-opacity="0.2"/>
<path d="M42 3.00006L116.105 45.7903V134.043L75.5 162L45.3007 94.4164L1.5 22.0001L42 3.00006Z" fill="#D9D9D9"/>
<path d="M42 3L116.105 45.7903L75.5 68L45.3007 94.4164L1.5 22L42 3Z" fill="#F4F4F4"/>
<path d="M1.5 22L75.5 68V162L2.15234 106.155L1.5 22Z" fill="white"/>
<path d="M21.1992 55L16.096 57.696L13.7852 60.1994L32.2721 85.1376L17.3477 92.8404L15.0369 95.3439L22.8361 102.565L38.0493 94.9587L56.7288 122.015L59.0396 119.512L43.0561 92.0701L55.6696 86.6781L57.9805 84.1747L52.2996 74.6424L37.279 82.3453L21.1992 55Z" fill="#9C1A1A"/>
<path d="M18.8883 57.5034L13.7852 60.1995L29.9612 87.641L15.0369 95.3439L20.5252 105.069L35.7384 97.4622L51.9145 125L56.7288 122.015L40.7453 94.5736L55.6696 86.6781L49.9887 77.1458L34.9681 84.8487L18.8883 57.5034Z" fill="#E02424"/>
</svg>
