<svg width="170" height="163" viewBox="0 0 170 163" fill="none" xmlns="http://www.w3.org/2000/svg">
<path d="M95.2148 92.5L169.715 123L151.715 154L75.2148 161.5L28.7148 94.5L95.2148 92.5Z" fill="black" fill-opacity="0.2"/>
<path d="M41.2148 3L115.32 45.7903V134.043L74.7148 162L44.5155 94.4164L0.714844 22L41.2148 3Z" fill="#D9D9D9"/>
<path d="M41.2148 3L115.32 45.7903L74.7148 68L44.5155 94.4164L0.714844 22L41.2148 3Z" fill="#F4F4F4"/>
<path d="M0.714844 22L74.7148 68V162L1.36719 106.155L0.714844 22Z" fill="white"/>
<path d="M17.8085 78.0757L13.6992 80.8152L24.2549 107.525L56.1614 93.8278L60.2706 91.0883L54.1056 81.211L40.7511 88.0064L27.3967 94.8017L17.8085 78.0757Z" fill="#046C4E"/>
<path d="M13.6977 80.8152L8.21875 86.2942L20.1442 110.265L56.1599 93.8278L49.9948 83.9505L23.286 97.5412L13.6977 80.8152Z" fill="#0E9F6E"/>
</svg>
